ProjetoCalculadora/simulation/qsim/calculadoraVHDL.msim.vcd
$comment
	File created using the following command:
		vcd file calculadoraVHDL.msim.vcd -direction
$end
$date
	Mon Apr 15 16:41:08 2019
$end
$version
	ModelSim Version 10.1d
$end
$timescale
	1ps
$end
$scope module subtracao_vlg_vec_tst $end
$var reg 1 ! Bi $end
$var reg 4 " x [3:0] $end
$var reg 4 # y [3:0] $end
$var wire 1 $ Bo $end
$var wire 1 % Dif [3] $end
$var wire 1 & Dif [2] $end
$var wire 1 ' Dif [1] $end
$var wire 1 ( Dif [0] $end
$var wire 1 ) sampler $end
$scope module i1 $end
$var wire 1 * gnd $end
$var wire 1 + vcc $end
$var wire 1 , unknown $end
$var tri1 1 - devclrn $end
$var tri1 1 . devpor $end
$var tri1 1 / devoe $end
$var wire 1 0 SUB3|Bo~0_combout $end
$var wire 1 1 SUB1|Bo~0_combout $end
$var wire 1 2 SUB3|Bo~1_combout $end
$var wire 1 3 SUB0|Dif~0_combout $end
$var wire 1 4 SUB1|Dif~0_combout $end
$var wire 1 5 SUB2|Dif~combout $end
$var wire 1 6 SUB3|Bo~2_combout $end
$var wire 1 7 SUB3|Dif~combout $end
$var wire 1 8 y~combout [3] $end
$var wire 1 9 y~combout [2] $end
$var wire 1 : y~combout [1] $end
$var wire 1 ; y~combout [0] $end
$var wire 1 < x~combout [3] $end
$var wire 1 = x~combout [2] $end
$var wire 1 > x~combout [1] $end
$var wire 1 ? x~combout [0] $end
$upscope $end
$upscope $end
$enddefinitions $end
#0
$dumpvars
0!
b111 "
b1110 #
1$
1(
0'
0&
1%
x)
0*
1+
x,
1-
1.
1/
10
01
12
13
04
05
06
17
0;
1:
19
18
1?
1>
1=
0<
$end
#5000
b11 "
b1 "
b0 "
b110 #
b111 #
1;
08
0?
0>
0=
0)
11
07
16
15
05
17
0%
1&
0&
1%
#10000
b1000 "
b11 #
b1100 "
b1101 "
b1011 #
b1010 #
0;
09
18
1?
1=
1<
1)
14
06
02
07
1'
0$
0%
#15000
b1000 #
b1111 "
b1100 #
b1110 "
b100 #
b101 #
0?
1>
1;
0:
19
08
0)
04
01
15
00
17
05
0'
1&
1%
0&
#20000
b111 #
b1100 "
b11 #
b1011 #
b1010 #
0>
0;
1:
09
18
1)
14
11
03
15
10
07
05
1'
0(
1&
0%
0&
#25000
b1000 "
b1010 "
b1110 #
19
1>
0=
0)
16
04
01
17
15
0'
1%
1&
#30000
b10 "
b1100 #
b110 "
b1000 #
0:
09
1=
0<
1)
14
06
12
07
17
1'
1$
0%
1%
#35000
b0 #
b1 #
b100 "
b1100 "
b11 #
b1000 "
b111 #
0>
0=
1<
1;
1:
19
08
0)
04
11
16
02
13
05
07
0'
0$
1(
0&
0%
#40000
b1001 "
b110 #
b1011 "
b11 "
b100 #
b111 "
0;
0:
1?
1>
1=
0<
1)
14
01
06
15
12
00
17
05
02
07
1'
1&
1$
1%
0&
0$
0%
#45000
b0 #
b110 "
b100 "
b1100 "
0?
0>
1<
09
0)
04
03
17
15
0'
0(
1%
1&
#55000
b1 #
b1110 "
1>
1;
1)
13
1(
#60000
b1001 #
b1010 "
b1101 #
b1100 #
0=
0;
19
18
0)
16
10
14
03
07
17
1'
0(
0%
1%
#65000
b10 "
b100 #
b110 "
08
1=
0<
1)
00
06
05
12
02
07
0&
1$
0$
0%
#70000
b110 #
b111 "
b10 #
b11 #
b1011 #
b11 "
1?
0=
1;
1:
09
18
0)
04
10
17
12
0'
1%
1$
#75000
b10 "
b110 "
0?
1=
1)
14
13
15
1'
1(
1&
#80000
b1010 #
b10 #
b10 "
0=
0;
08
0)
05
00
04
03
07
02
0&
0'
0(
0%
0$
#85000
b0 "
b1000 "
b0 #
b100 #
b1001 "
b1101 "
0:
19
1?
0>
1=
1<
1)
13
17
1(
1%
#90000
b101 #
b101 "
b111 #
b11 #
b100 "
0?
0<
1;
1:
09
0)
11
07
15
05
0%
1&
0&
#95000
b1011 #
b1010 #
b1100 "
b1000 #
b1100 #
1<
0;
0:
19
18
1)
03
01
15
10
05
0(
1&
0&
#100000
b1110 "
b100 #
b101 #
1;
08
1>
0)
13
17
00
1(
1%
#105000
b1010 "
b1 #
09
0=
1)
#110000
b1011 "
b0 #
b100 #
0;
19
1?
0)
14
16
15
10
07
1'
1&
0%
#115000
b110 #
b1110 #
b1111 #
b1011 #
1;
1:
09
18
1)
04
03
06
05
17
07
0'
0(
0&
1%
0%
#120000
b1111 "
b1110 "
b1001 #
b1 #
b0 #
0;
0:
08
0?
1=
0)
14
17
00
15
1'
1%
1&
#125000
b1100 "
b100 #
b1000 "
b110 #
b111 #
1;
1:
19
0>
0=
1)
04
13
11
16
10
05
07
0'
1(
0&
0%
#130000
b0 "
b1 "
b1111 #
b11 "
b111 "
b1101 #
b1100 #
0;
0:
18
1?
1>
1=
0<
0)
14
01
06
15
12
05
17
1'
1&
1$
0&
1%
#135000
b1111 "
b1011 "
0=
1<
1)
16
15
02
07
17
1&
0$
0%
1%
#140000
b1001 "
b1101 #
b1101 "
1;
0>
1=
0)
04
03
06
05
07
0'
0(
0&
0%
#145000
b101 #
b101 "
0<
08
1)
12
00
02
1$
0$
#150000
b100 "
b111 #
b110 "
b10 "
b1010 "
1:
0?
1>
0=
1<
0)
14
13
16
15
10
17
07
1'
1(
1&
1%
0%
#155000
b11 #
b10 #
b0 #
b1000 "
0>
0;
0:
09
1)
04
03
06
05
00
17
0'
0(
0&
1%
#160000
b1000 #
b0 "
b1100 #
0<
19
18
0)
16
15
10
07
12
1&
0%
1$
#165000
b1 "
b101 "
b1101 #
b1101 "
b1001 #
1;
09
1?
1=
1<
1)
06
02
17
07
0$
1%
0%
#170000
b1 #
b0 #
b100 #
0;
19
08
0)
13
05
00
17
1(
0&
1%
#175000
b1111 "
b1110 "
b1100 #
b1101 #
b1001 #
1;
09
18
0?
1>
1)
15
10
07
1&
0%
#180000
b1011 #
b1111 "
b1111 #
1?
1:
19
0)
03
05
0(
0&
#185000
b1011 "
b1001 "
b1000 "
0?
0>
0=
1)
13
11
16
15
05
17
1(
1&
0&
1%
#195000
b0 "
b1101 #
b1001 #
b10 "
0:
09
1>
0<
0)
01
15
07
12
06
05
1&
0%
1$
17
0&
1%
#200000
b1 #
b110 "
b111 "
b11 #
b111 #
1?
1=
1:
19
08
1)
03
00
07
02
0(
0%
0$
#205000
b110 #
b10 #
0;
09
0)
13
15
1(
1&
#210000
b1111 "
b1011 "
b110 #
19
0=
1<
1)
16
10
17
07
1%
0%
#215000
b1110 #
b1100 #
b1101 #
b11 "
b1001 #
0<
1;
0:
09
18
0)
12
14
03
06
05
17
1$
1'
0(
0&
1%
#220000
b1000 #
b1100 #
0;
19
1)
13
16
15
07
1(
1&
0%
#225000
b1 "
b101 "
b1101 #
b1001 #
1;
09
0>
1=
0)
04
03
06
17
0'
0(
1%
#230000
b111 "
b11 "
1>
0=
1)
14
05
1'
0&
#235000
b10 "
b1010 "
b1000 #
0;
0?
1<
0)
07
02
0%
0$
#240000
b1010 #
b1110 #
b1000 "
b1100 "
b1101 "
b101 "
1?
0>
1=
0<
1:
19
1)
13
11
12
17
15
1(
1$
1%
1&
#245000
b1100 #
b1000 #
b111 "
b11 "
b10 "
b1010 "
0?
1>
0=
1<
0:
09
0)
03
01
16
02
07
06
05
17
0(
0$
0%
07
0&
1%
0%
#250000
b1010 #
b1110 #
b1000 "
b1001 "
1?
0>
1:
19
1)
13
11
16
15
05
17
1(
1&
0&
1%
#255000
b110 #
b111 #
b1011 "
b1010 "
0?
1>
1;
08
0)
01
07
15
0%
1&
#260000
b1110 "
b11 #
b1011 #
b1010 #
0;
09
18
1=
1)
04
03
06
17
07
0'
0(
1%
0%
#265000
b110 "
b100 "
b101 "
b1110 #
b1111 #
1;
19
1?
0>
0<
0)
14
11
05
17
12
15
1'
0&
1%
1$
1&
#270000
b1101 #
b101 #
b1101 "
b1111 "
b1 #
1>
1<
0:
09
08
1)
01
02
05
00
15
0$
0&
1&
#275000
b1011 "
b1010 "
b1001 #
b10 "
b0 "
18
0?
0>
0=
0<
0)
10
13
11
05
12
16
15
1(
0&
07
1$
1&
0%
#280000
b1000 #
b1010 #
b1110 #
b100 "
b101 "
b110 #
1?
1=
0;
1:
19
08
1)
06
00
17
07
02
1%
0%
0$
#285000
b111 "
b100 #
b110 "
0:
0?
1>
0)
01
03
05
0(
0&
#290000
b1110 "
b1100 "
0>
1<
1)
04
17
0'
1%
#295000
b101 #
b1 #
b11 #
1;
1:
09
0)
13
11
15
05
1(
1&
0&
#300000
b1011 #
b1101 "
b1111 "
b1010 #
b1110 #
1?
1>
0;
19
18
1)
01
15
10
07
05
1&
0%
0&
#305000
b1011 "
b110 #
b1010 "
b111 #
1;
08
0?
0=
0)
14
17
16
15
07
1'
1%
1&
0%
#310000
b10 "
b101 #
b110 "
b111 "
b100 #
0;
0:
1?
1=
0<
1)
06
05
12
00
17
07
02
0&
1$
1%
0%
0$
#315000
b101 "
b1101 "
b1001 "
b101 #
1;
0>
0=
1<
0)
04
03
16
15
10
17
07
0'
0(
1&
1%
0%
#320000
b1 #
b11 #
b1000 "
b10 #
0?
0;
1:
09
1)
14
11
06
05
00
16
15
17
1'
0&
07
1&
1%
0%
#325000
b1010 #
b0 "
b100 "
b1000 #
1=
0<
0:
18
0)
06
05
10
04
01
17
12
15
0&
0'
1%
1$
1&
#330000
b1100 #
b1100 "
1<
19
1)
07
02
05
0%
0$
0&
#335000
b1101 #
b100 "
0<
1;
0)
17
12
14
13
11
15
1%
1$
1'
1(
1&
#340000
b101 "
b1111 #
b1011 #
1:
09
1?
1)
05
03
0&
0(
#345000
b111 "
b11 "
b10 "
b1001 #
b1101 #
0:
19
0?
1>
0=
0)
04
01
16
13
15
07
0'
1(
1&
0%
#350000
b11 "
b1111 #
b1011 #
1:
09
1?
1)
06
05
03
17
0&
0(
1%
#355000
b1010 #
b111 "
1=
0;
0)
15
13
1&
1(
#360000
b101 "
b1000 #
b1100 #
b1101 #
1;
0:
19
0>
1)
03
05
0(
0&
#365000
b101 #
b100 "
0?
08
0)
14
13
11
07
00
15
02
1'
1(
0%
1&
0$
#370000
b1100 "
b111 #
b1111 #
1:
18
1<
1)
04
10
0'
#375000
b1000 "
b1010 "
b1011 #
b1011 "
09
1?
1>
0=
0)
16
03
01
17
06
05
0(
07
1%
0&
0%
#380000
b1010 #
b11 "
b111 "
b1110 #
b110 "
0?
1=
0<
0;
19
1)
12
17
1$
1%
#385000
b1100 #
b100 #
b100 "
b0 #
b101 "
1?
0>
0:
09
08
0)
13
15
00
07
02
1(
1&
0%
0$
#390000
b1 #
b1101 "
b1111 "
b1110 "
0?
1>
1<
1;
1)
17
1%
#395000
b1010 "
b11 #
b111 #
b110 #
b10 "
0;
1:
19
0=
0<
0)
03
16
10
07
17
12
0(
0%
1%
1$
#400000
b0 "
b1000 "
0>
1<
1)
14
11
07
02
05
1'
0%
0$
0&
#405000
b1001 "
b1101 "
b100 #
b0 #
b1 #
1;
0:
09
1?
1=
0)
04
01
06
00
15
17
0'
1&
1%
#410000
b1111 "
b1110 "
b1010 "
b101 #
19
0?
1>
0=
1)
16
10
13
07
1(
0%
#415000
b10 "
b0 "
b1 "
b1 #
09
1?
0>
0<
0)
06
05
00
03
17
12
07
02
0&
0(
1%
1$
0%
0$
#420000
b11 #
b1001 "
b1011 "
b1010 "
0?
1>
1<
1:
1)
14
13
17
1'
1(
1%
#425000
b1011 #
b1110 "
b1111 #
b1101 #
b1100 "
0>
1=
0:
19
18
0)
11
10
07
15
0%
1&
#430000
b1111 #
b1110 "
1>
1:
1)
01
05
0&
#435000
b110 "
b111 "
b111 #
b101 #
0:
08
1?
0<
0)
00
03
12
02
0(
1$
0$
#440000
b11 "
b1 #
b1 "
b0 "
b1001 #
09
18
0?
0>
0=
1)
10
17
13
11
12
16
15
1%
1(
07
1$
1&
0%
#445000
b1000 #
b1000 "
b1100 #
1<
0;
19
0)
17
02
04
03
01
05
15
1%
0$
0'
0(
0&
1&
#450000
b1110 #
b1001 "
b110 #
b111 #
b1 "
b11 #
1?
0<
1;
1:
09
08
1)
14
11
12
06
05
00
16
15
07
1'
1$
0&
17
1&
0%
1%
#455000
b1011 #
18
0)
07
10
0%
#460000
b101 "
b1001 #
b100 "
b1000 #
b1100 "
b0 #
0;
0:
08
0?
1=
1<
1)
04
01
00
06
05
02
15
17
0'
0&
0$
1&
1%
#465000
b100 #
b1100 #
19
18
0)
05
10
07
0&
0%
#470000
b1101 #
b100 "
b1001 #
0<
1;
09
1)
17
12
14
13
11
15
05
1%
1$
1'
1(
1&
0&
#475000
b0 "
b1 #
b101 #
19
08
0=
0)
16
07
17
0%
1%
#480000
b111 #
b110 #
b10 #
0;
1:
09
1)
03
15
00
0(
1&
#485000
b11 #
1;
0)
04
13
0'
1(
#490000
b1000 "
b1100 "
1=
1<
1)
06
05
02
07
17
0&
0$
0%
1%
#495000
b1110 "
b1011 #
b1001 #
b1000 #
b1010 "
0;
0:
18
1>
0=
0)
14
03
01
07
10
16
15
06
05
17
1'
0(
0%
1&
07
0&
1%
0%
#500000
b1011 "
b1100 #
b1001 "
b1101 #
1;
19
1?
0>
1)
04
16
15
17
0'
1&
1%
#505000
b1 "
b101 #
b111 #
b101 "
b100 "
b110 "
b110 #
0;
1:
08
0?
1>
1=
0<
0)
00
06
05
12
02
07
0&
1$
0$
0%
#510000
b1110 "
b1110 #
b1010 "
b1011 "
b1001 "
b1111 #
1;
18
1?
0>
0=
1<
1)
14
11
10
16
15
05
17
1'
1&
0&
1%
#515000
b1101 #
b101 #
b1000 "
0?
0:
08
0)
13
07
1(
0%
#520000
b1 #
b1010 "
b0 #
b10 #
1>
0;
1:
09
1)
04
01
03
15
00
06
05
0'
0(
1&
17
0&
1%
#525000
b10 "
b110 "
b1010 #
b111 "
b101 "
b1000 #
0:
18
1?
0>
1=
0<
0)
10
13
15
12
1(
1&
1$
#530000
b1 "
0=
1)
05
0&
#535000
b1100 #
b1101 #
b101 #
b11 "
b111 "
1>
1=
1;
19
08
0)
14
00
03
07
02
1'
0(
0%
0$
#540000
b110 "
b100 #
b1100 #
b100 "
b0 "
0;
18
0?
0>
0=
1)
04
17
10
16
15
12
07
0'
1%
1&
1$
0%
#545000
b1000 "
b100 #
b1010 "
b1110 "
08
1>
1=
1<
0)
00
14
06
05
02
17
1'
0&
0$
1%
#550000
b0 #
b110 "
b1000 #
0<
09
18
1)
15
10
12
1&
1$
#560000
b100 "
b1100 #
19
0>
0)
05
04
0&
0'
#565000
b1110 #
b101 "
b1111 #
b1101 "
b111 #
1?
1<
1;
1:
08
1)
14
11
02
00
15
1'
0$
1&
#570000
b1111 "
b11 #
b111 "
b1011 #
09
18
1>
0<
0)
05
10
04
01
12
15
0&
0'
1$
1&
#575000
b11 "
b10 "
0?
0=
1)
14
13
05
1'
1(
0&
#580000
b0 "
b1111 #
b1000 "
b1100 "
19
0>
1=
1<
0)
04
11
02
07
15
0'
0$
0%
1&
#585000
b111 #
b11 #
b1000 "
0=
09
08
1)
16
00
17
07
1%
0%
#590000
b1 #
b0 #
b1010 "
b1000 #
b1100 #
b1110 "
1>
1=
0;
0:
19
18
0)
14
01
06
10
03
17
05
07
1'
0(
1%
0&
0%
#595000
b110 "
b1110 #
b110 #
b10 "
1:
08
0=
0<
1)
04
16
15
12
17
0'
1&
1$
1%
#600000
b111 #
b0 "
b11 #
b100 "
0>
1=
1;
09
0)
11
06
00
13
05
02
07
1(
0&
0$
0%
#605000
b101 "
b1101 "
b1 #
b0 #
b100 #
b1001 "
0;
0:
19
1?
0=
1<
1)
01
16
10
17
15
07
1%
1&
0%
#610000
b1100 #
b1000 "
b1110 #
0?
1:
18
0)
14
03
11
17
05
1'
0(
1%
0&
#615000
b1010 "
b10 "
b110 "
b110 #
08
1>
1=
0<
1)
00
04
01
06
15
12
02
05
07
0'
1&
1$
0$
0&
0%
#620000
b111 #
b11 #
b111 "
b1 #
b101 "
b1101 "
1?
0>
1<
1;
0:
09
0)
17
15
1%
1&
#625000
b1001 "
b0 #
0;
0=
1)
13
05
1(
0&
#630000
b1000 #
b1100 #
19
18
0)
16
15
10
07
17
1&
0%
1%
#635000
b1000 "
b0 "
b1101 #
b1001 #
1;
09
0?
0<
1)
14
11
06
05
07
12
16
15
17
1'
0&
0%
1$
07
1&
1%
0%
#640000
b10 "
b110 "
b111 "
b1111 "
b1000 #
0;
1?
1>
1=
1<
0)
01
06
05
02
17
15
07
0&
0$
1%
1&
0%
#645000
b1100 #
b1011 "
b1010 "
b1101 #
0?
0=
1;
19
1)
04
16
17
0'
1%
#650000
b1011 "
b1100 #
0;
1?
0)
14
1'
#655000
b1110 #
b1010 #
b1011 #
1;
1:
09
1)
04
03
06
05
07
0'
0(
0&
0%
#660000
b11 #
b1001 "
b1101 "
b1100 "
b1 #
b0 #
0?
0>
1=
0;
0:
08
0)
15
00
17
1&
1%
#665000
b100 "
0<
1)
07
0%
#670000
b1000 #
b0 "
0=
18
0)
05
10
17
12
0&
1%
1$
#675000
b1100 #
b1101 #
b101 #
b100 "
1=
1;
19
08
1)
00
14
13
11
07
02
15
1'
1(
0%
0$
1&
#680000
b101 "
b1 #
b0 #
b1000 #
0;
09
18
1?
0)
04
01
05
10
17
15
12
0'
0&
1%
1&
1$
#685000
b1 "
b0 "
0?
0=
1)
03
05
0(
0&
#690000
b10 "
b1010 #
b1010 "
b1011 #
1;
1:
1>
1<
0)
14
13
07
02
1'
1(
0%
0$
#695000
b11 #
b1011 "
b10 #
1?
0;
08
1)
04
17
00
0'
1%
#700000
b1111 "
b1101 "
b101 "
b1010 #
b100 "
18
0?
0>
1=
0<
0)
10
14
03
11
15
12
05
1'
0(
1&
1$
0&
#705000
b1100 "
b1101 "
1?
1<
1)
13
07
02
1(
0%
0$
#710000
b1110 #
b1111 #
b1001 "
b1011 "
b111 #
b11 "
b10 "
0?
1>
0=
0<
1;
19
08
0)
01
16
12
15
17
1$
1&
1%
#715000
b110 "
b111 "
1?
1=
1)
04
03
06
05
00
07
02
0'
0(
0&
0%
0$
#720000
b101 #
b110 "
0?
0:
0)
13
1(
#725000
b1 #
b111 "
1?
09
1)
14
03
15
1'
0(
1&
#730000
b101 "
b1 "
b101 #
b0 "
19
0?
0>
0=
0)
16
10
13
11
17
12
05
1(
1%
1$
0&
#735000
b1101 #
b1111 #
b1 "
1?
1:
18
1)
03
07
0(
0%
#740000
b1011 #
b11 #
09
08
0)
15
00
17
1&
1%
#745000
b10 #
b11 "
b111 "
b110 #
b1110 #
1>
1=
0;
19
18
1)
04
01
06
02
10
13
07
05
12
17
0'
0$
1(
0%
0&
1$
1%
#750000
b1111 "
b1111 #
b1011 #
b11 #
1;
09
08
1<
0)
03
15
00
02
0(
1&
0$
#755000
b1 #
b1110 "
b1100 "
b100 "
b0 #
b1000 #
0?
0>
0<
0;
0:
18
1)
10
12
1$
#760000
b0 "
b1100 #
b1 "
b11 "
b1011 "
19
1?
1>
0=
1<
0)
16
14
13
02
07
17
1'
1(
0$
0%
1%
#765000
b1110 #
b1111 #
b111 #
b11 #
b1001 "
0>
1;
1:
09
08
1)
11
03
06
05
00
07
16
15
17
0(
0&
0%
07
1&
1%
0%
#770000
b1101 "
b1100 "
b10 #
b1010 #
b1110 #
0;
19
18
0?
1=
0)
06
10
17
07
1%
0%
#775000
b100 "
b0 "
0=
0<
1)
16
05
12
17
07
0&
1$
1%
0%
#780000
b1111 #
b1011 #
1;
09
0)
04
13
15
0'
1(
1&
#785000
b1001 #
b10 "
b11 "
b1 #
b111 "
b101 #
1?
1>
1=
0:
19
08
1)
14
03
01
06
00
17
05
02
07
1'
0(
1%
0&
0$
0%
#790000
b1111 "
b100 #
b1101 "
b1001 "
0;
0>
0=
1<
0)
04
13
16
15
10
17
07
0'
1(
1&
1%
0%
#795000
b1000 "
b1100 #
b0 "
18
0?
0<
1)
03
12
0(
1$
#800000
b1101 #
b100 "
b101 "
b1101 "
1?
1=
1<
1;
0)
06
05
02
17
07
0&
0$
1%
0%
#805000
b1001 #
b1111 "
b1 #
b0 #
b1011 "
b1010 "
0?
1>
0=
0;
09
08
1)
14
00
17
1'
1%
#810000
b100 #
b101 #
1;
19
0)
04
13
16
15
10
07
0'
1(
1&
0%
#815000
b111 #
b10 "
b0 "
b1111 #
b100 "
b101 "
b1011 #
b1010 #
1?
0>
1=
0<
0;
1:
09
18
1)
14
11
06
12
05
17
1'
1$
0&
1%
#820000
b1101 "
b1111 "
b1011 #
1;
1>
1<
0)
04
03
01
07
02
15
0'
0(
0%
0$
1&
#825000
b1001 #
b1110 "
b1000 #
0?
0;
0:
1)
14
1'
#830000
b1100 #
b1100 "
b1110 #
0>
1:
19
0)
11
05
15
0&
1&
#835000
b1000 "
b1001 "
1?
0=
1)
13
16
05
17
1(
0&
1%
#840000
b110 #
b1 "
b100 #
b101 "
b100 "
0?
1=
0<
0:
08
0)
04
03
01
06
15
12
00
05
02
07
0'
0(
1&
1$
0&
0$
0%
#845000
b0 #
b1000 #
b1010 #
1:
09
18
1)
14
11
15
10
17
05
12
1'
1&
1%
0&
1$
#850000
b1011 #
b0 "
b1 "
b1111 #
b111 #
b101 #
1?
0=
1;
0:
19
08
0)
04
01
16
07
15
17
0'
0%
1&
1%
#855000
b1001 "
b1101 #
b1111 #
1:
18
1<
1)
14
11
02
05
1'
0$
0&
#860000
b1011 "
b1111 "
b1110 "
b1011 #
b11 #
b1 #
0:
09
08
0?
1>
1=
0)
04
01
06
00
07
13
15
17
0'
0%
1(
1&
1%
#865000
b1100 "
b1101 "
b101 #
b111 #
1:
19
1?
0>
1)
14
11
05
03
15
1'
0&
0(
1&
#870000
b110 #
b1001 "
b1110 #
b1011 "
b1010 #
b1000 #
1>
0=
0;
0:
09
18
0)
01
16
10
13
07
06
05
17
1(
0%
07
0&
1%
0%
#875000
b11 "
b1001 #
1;
0<
1)
03
17
12
0(
1%
1$
#880000
b10 "
b1 #
b11 #
b10 #
0;
1:
08
0?
0)
04
07
00
02
0'
0%
0$
#885000
b110 "
b100 "
b1100 "
b1101 "
b1010 #
18
1?
0>
1=
1<
1)
10
14
13
11
15
05
1'
1(
1&
0&
#890000
b1110 #
b1100 #
b1111 "
b1110 "
b100 #
0?
1>
0:
19
08
0)
03
01
15
00
17
05
0(
1&
1%
0&
#895000
b1010 "
b110 #
1:
0=
1)
04
16
15
10
07
0'
1&
0%
#900000
b10 "
b10 #
b0 "
b1 "
b1010 #
09
18
1?
0>
0<
0)
06
05
14
13
11
12
17
16
15
0&
1'
1(
1$
07
1%
1&
0%
#905000
b1011 #
b1001 "
b1111 #
b1011 "
b1010 "
0?
1>
1<
1;
19
1)
01
17
02
05
15
1%
0$
0&
1&
#910000
b1110 "
b1101 #
b110 "
b111 "
0:
1?
1=
0<
0)
03
06
05
12
07
17
0(
0&
1$
0%
1%
#915000
b1100 #
b101 "
b1 "
0>
0=
0;
1)
04
16
15
13
07
0'
1&
1(
0%
#920000
b100 #
b0 "
b101 #
0?
1;
08
0)
14
11
17
05
1'
1%
0&
#925000
b1 #
09
1)
15
00
1&
#930000
b1000 "
b1010 "
b1110 "
b1111 "
b101 #
19
1?
1>
1=
1<
0)
06
03
01
02
07
17
05
0(
0$
0%
1%
0&
#935000
b1101 #
b1100 #
b1000 #
0;
09
18
1)
13
15
10
07
1(
1&
0%
#940000
b1010 #
b1110 "
b10 #
0?
1:
08
0)
04
03
17
00
0'
0(
1%
#945000
b110 "
b100 "
b0 "
b0 #
b1 "
0:
1?
0>
0=
0<
1)
13
05
07
1(
0&
0%
#950000
b1000 #
b1010 #
b0 "
0?
1:
18
0)
14
03
11
17
10
16
15
12
1'
0(
1%
07
1&
1$
0%
#955000
b10 "
b110 "
b1000 #
b111 "
0:
1?
1>
1=
1)
01
13
06
05
15
17
1(
0&
1&
1%
#960000
b1100 #
b100 #
b101 "
0>
19
08
0)
04
05
00
07
02
0'
0&
0%
0$
#965000
b101 #
b100 "
b1 #
b1001 #
b110 "
0?
1>
1;
09
18
1)
15
10
17
12
1&
1%
1$
#970000
b1110 "
b1000 #
b1111 "
b1100 #
b100 #
b1101 "
0;
19
08
1?
0>
1<
0)
05
00
02
0&
0$
#975000
b1001 "
b1 "
b0 "
0?
0=
0<
1)
03
16
15
10
07
17
12
0(
1&
0%
1%
1$
#980000
b110 #
b100 "
b101 "
1?
1=
1:
0)
14
13
11
06
05
00
15
02
07
1'
1(
0&
1&
0$
0%
#985000
b10 #
b100 "
0?
09
1)
03
05
0(
0&
#990000
b1010 #
b110 "
b1110 "
b1000 #
b1111 "
1?
1>
1<
0:
18
0)
13
01
10
15
1(
1&
